{
  "require": {
    "drupal/allowed_formats": "^3.0",
    "drupal/ckeditor5_embedded_content": "^2.0",
    "drupal/config_rewrite": "^1.0",
    "drupal/devel": "^5.0",
    "drupal/embedded_content": "^2.0",
    "drupal/entity_reference_revisions": "^1.0",
    "drupal/field_group": "^3.0",
    "drupal/inline_entity_form": "^3.0",
    "drupal/jsonapi_extras": "^3.0",
    "drupal/paragraphs": "^1.0"
  }
}


